…
The [hciRdata](https://github.com/HuntsmanCancerInstitute/hciRdata)
package includes feature annotations from the latest Ensembl release 98
for twelve reference genomes (human, mouse, elephant, fly, pig, rabbit,
rat, sheep, vervet, worm, yeast and zebrafish), plus earlier even
numbered releases for mouse and human (human90, human92, etc). Load the
package and select an annotation table.

``` r
library(hciRdata)
dplyr::select(human98, 1:4,8)
#  # A tibble: 60,623 x 5
#     id              gene_name biotype       chromosome description                                             
#     <chr>           <chr>     <chr>         <chr>      <chr>                                                   
#   1 ENSG00000000003 TSPAN6    protein_codi… X          tetraspanin 6                                           
#   2 ENSG00000000005 TNMD      protein_codi… X          tenomodulin                                             
#   3 ENSG00000000419 DPM1      protein_codi… 20         dolichyl-phosphate mannosyltransferase subunit 1, catal…
#   4 ENSG00000000457 SCYL3     protein_codi… 1          SCY1 like pseudokinase 3                                
#   5 ENSG00000000460 C1orf112  protein_codi… 1          chromosome 1 open reading frame 112                     
#   6 ENSG00000000938 FGR       protein_codi… 1          FGR proto-oncogene, Src family tyrosine kinase          
#   7 ENSG00000000971 CFH       protein_codi… 1          complement factor H                                     
#   8 ENSG00000001036 FUCA2     protein_codi… 6          alpha-L-fucosidase 2                                    
#   9 ENSG00000001084 GCLC      protein_codi… 6          glutamate-cysteine ligase catalytic subunit             
#  10 ENSG00000001167 NFYA      protein_codi… 6          nuclear transcription factor Y subunit alpha            
#  # … with 60,613 more rows
```

To download additional species, use `read_biomart` to view a list of all
available datasets.

``` r
x <- read_biomart(list="datasets")
Using Ensembl release 98
Downloaded 212 datasets
> x
# # A tibble: 212 x 3
#   dataset                      description                                  version
#   <chr>                        <chr>                                        <chr>
# 1 abrachyrhynchus_gene_ensembl Pink-footed goose genes (ASM259213v1)        ASM259213v1
# 2 acalliptera_gene_ensembl     Eastern happy genes (fAstCal1.2)             fAstCal1.2
# 3 acarolinensis_gene_ensembl   Anole lizard genes (AnoCar2.0)               AnoCar2.0
# 4 acitrinellus_gene_ensembl    Midas cichlid genes (Midas_v5)               Midas_v5
# 5 ahaastii_gene_ensembl        Great spotted kiwi genes (aptHaa1)           aptHaa1
# 6 amelanoleuca_gene_ensembl    Panda genes (ailMel1)                        ailMel1
# 7 amexicanus_gene_ensembl      Mexican tetra genes (Astyanax_mexicanus-2.0) Astyanax_mexicanus-2.0
# # … with 205 more rows
```
…
