…
```{r fly98, echo=-1}
options(width=110)
library(hciRdata)
dplyr::select(human98, 1:4,8)
```

To download additional species, use `read_biomart` to view a list of all available datasets.

```{r datasets, eval=FALSE}
x <- read_biomart(list="datasets")
Using Ensembl release 98
Downloaded 212 datasets
> x
# # A tibble: 212 x 3
#   dataset                      description                                  version
#   <chr>                        <chr>                                        <chr>
# 1 abrachyrhynchus_gene_ensembl Pink-footed goose genes (ASM259213v1)        ASM259213v1
# 2 acalliptera_gene_ensembl     Eastern happy genes (fAstCal1.2)             fAstCal1.2
# 3 acarolinensis_gene_ensembl   Anole lizard genes (AnoCar2.0)               AnoCar2.0
# 4 acitrinellus_gene_ensembl    Midas cichlid genes (Midas_v5)               Midas_v5
# 5 ahaastii_gene_ensembl        Great spotted kiwi genes (aptHaa1)           aptHaa1
# 6 amelanoleuca_gene_ensembl    Panda genes (ailMel1)                        ailMel1
# 7 amexicanus_gene_ensembl      Mexican tetra genes (Astyanax_mexicanus-2.0) Astyanax_mexicanus-2.0
# # … with 205 more rows
```
…
