…
Load the combined
[featureCounts](http://bioinf.wehi.edu.au/featureCounts/) matrix.

``` r
counts <- read_tsv(paste(extdata, "liver_counts.tsv", sep="/"))
counts[, 1:8]
#  # A tibble: 53,801 x 8
#     geneid             `15089X1` `15089X3` `15089X4` `15089X6` `15089X7` `15089X8` `15089X9`
#     <chr>                  <dbl>     <dbl>     <dbl>     <dbl>     <dbl>     <dbl>     <dbl>
#   1 ENSMUSG00000000001      1941      2768      2910      2577      2265      2067      1517
#   2 ENSMUSG00000000003         0         0         0         0         1         0         0
#   3 ENSMUSG00000000028        21        27        27        28        17        18        21
#   4 ENSMUSG00000000031         3         1         5         3        10         0         3
#   5 ENSMUSG00000000037         0         0         0         0         4         0         0
#   6 ENSMUSG00000000049     28341     50511     49518     33501     31659     28992     36375
#   7 ENSMUSG00000000056       748      1665      1570      1002       694       907       811
#   8 ENSMUSG00000000058        53        94        75       110       121        88        32
#   9 ENSMUSG00000000078       249       200       355       180       221       218       190
#  10 ENSMUSG00000000085       102        93       121        77        90        96       110
#  # … with 53,791 more rows
```
…
Load the mouse annotations from Ensembl 92 in
[hciRdata](https://github.com/HuntsmanCancerInstitute/hciRdata) and
check genes with the highest number of assigned reads.

``` r
library(hciRdata)
n1 <- rowMeans(as_matrix(counts))
inner_join( dplyr::select(mouse92, 1:4,8),
 tibble(id= names(n1), mean_count = n1)) %>%
 mutate(description=substr(description, 1, 40)) %>%
 arrange(desc(mean_count))
#  Joining, by = "id"
#  # A tibble: 19,438 x 6
#     id                 gene_name biotype        chromosome description                               mean_count
#     <chr>              <chr>     <chr>          <chr>      <chr>                                          <dbl>
#   1 ENSMUSG00000029368 Alb       protein_coding 5          "Serum albumin"                             1203267.
#   2 ENSMUSG00000064339 mt-Rnr2   Mt_rRNA        MT         "mitochondrially encoded 16S rRNA"           446965.
#   3 ENSMUSG00000020609 Apob      protein_coding 12         "Apolipoprotein B-100 Apolipoprotein B-4…    383672.
#   4 ENSMUSG00000002985 Apoe      protein_coding 7          "Apolipoprotein E"                           282255.
#   5 ENSMUSG00000058207 Serpina3k protein_coding 12         "serine (or cysteine) peptidase inhibito…    208042.
#   6 ENSMUSG00000064351 mt-Co1    protein_coding MT         "mitochondrially encoded cytochrome c ox…    205715.
#   7 ENSMUSG00000037071 Scd1      protein_coding 19         "stearoyl-Coenzyme A desaturase 1"           161081 
#   8 ENSMUSG00000066154 Mup3      protein_coding 4          ""                                           129662.
#   9 ENSMUSG00000024164 C3        protein_coding 17         "Complement C3 Complement C3 beta chain …    127646.
#  10 ENSMUSG00000035540 Gc        protein_coding 5          "Vitamin D-binding protein"                  114648.
#  # … with 19,428 more rows
```
…
Find genes in the PPAR Signaling Pathway using the MSigDB pathways in
[hciRdata](https://github.com/HuntsmanCancerInstitute/hciRdata). Note
the mouse annotations include human homologs from
MGI.

``` r
p1 <- filter(res[[1]], human_homolog %in% msig_pathways$KEGG[["PPAR Signaling Pathway"]])
dplyr::select(p1, 1:7,12)
#  # A tibble: 70 x 8
#     id        gene_name biotype   chromosome description                        human_homolog baseMean     padj
#     <chr>     <chr>     <chr>     <chr>      <chr>                              <chr>            <dbl>    <dbl>
#   1 ENSMUSG0… Pparg     protein_… 6          peroxisome proliferator activated… PPARG           252.   3.18e- 4
#   2 ENSMUSG0… Nr1h3     protein_… 2          Mus musculus nuclear receptor sub… NR1H3          1769.   8.98e- 1
#   3 ENSMUSG0… Ppard     protein_… 17         Peroxisome proliferator-activated… PPARD            55.0  9.57e- 1
#   4 ENSMUSG0… Angptl4   protein_… 17         Angiopoietin-related protein 4     ANGPTL4        1867.   7.58e- 3
#   5 ENSMUSG0… Cd36      protein_… 5          Platelet glycoprotein 4            CD36           2041.   7.27e-16
#   6 ENSMUSG0… Apoa2     protein_… 1          Apolipoprotein A-II Proapolipopro… APOA2         90023.   4.84e- 1
#   7 ENSMUSG0… Cpt1c     protein_… 7          Mus musculus carnitine palmitoylt… CPT1C             6.15 6.85e- 1
#   8 ENSMUSG0… Ubc       protein_… 5          ubiquitin C                        UBC             875.   1.02e- 3
#   9 ENSMUSG0… Acaa1b    protein_… 9          acetyl-Coenzyme A acyltransferase… ACAA1         12675.   4.12e- 1
#  10 ENSMUSG0… Lpl       protein_… 8          lipoprotein lipase                 LPL             664.   3.76e- 1
#  # … with 60 more rows
```
…
